callate solo estaba buscando clave exito,0
che callate,0
callate primera noticia,1
si te queda dignidad callate y espera milagro para hablar sin problemas,1
callate imbecil,1
callate sun no ves que me duele,1
solo van por ratas como tu sabandija asibwue agarrate mariguas por que ya estas cercas de pisar tambo junto con tus bastardos y martita asi que deja de hacer ruido ruisenor que mientras mas ladres mas sabemos donde andas cundo mejor te esperes te llega ley ya callate,1
escuchame callate ya,1
pendeja anda a lavarte ojete y callate,1
callate que uno no te alcanza,1
callate chamuyera,1
callate o te meto punaso,1
callate ya que despues te dan flatos bocazas,1
callate boca estupidoa gringoa,1
callate friqui,1
callate adoptada,1
callate nahiara si gracias,1
mejor callate annie que si no lias mas,1
vale ichigo me esta encantando como personaje callate puta loca jajajajajajajajaj,1
querida callate y rabia mikisexto,1
callate y respondeme,1
chinga tu madre foxya callate pura mierda hablas pinche mariguana,1
callate estupida,1
callate no sabes que te perdes,1
callate dientes de caballo,1
siempre me levanto de mal humor y no aguanto nada mi hermana mostrandome videos graciosos y estoy en modo callate concha de tu madre,1
callate hija de puta,1
ira callate mejor,1
mira mara mejor cllate eh,1
callate trola,1
ahora con de lista de boda pasa que yo no entendia yo decia ay equis no es importante no tienes porque sentirte comprometida mis papas tendrian que respetar eso no me pasaria vez mas mejor callate paola,0
callate poco envidiosa,1
callate o te pateo,1
ya callate,1
eso tu callate,1
callate puta,1
callate forra,1
najaajj callate quinceaera,0
callate basica,1
callate papanatas,1
ay de vd callate pelotuda,1
revisa horno que ahi te deje pasticho callate te amo,0
callate pelo polla,1
jajajja callate con q salio me dejo hasta q me rompa todo dientes ndeaah,0
ya callate chaira,1
callate boca,1
callate cara de verga aplastada,1
callate y trabaja,1
vos callate,1
yo solo t digo q manana vas a pasar h a mi lado asi q callate boca apestosa q me traes,1
cllate a verga carla morrison,1
vos callate que cumpliste hace dias,0
callate que es mentira,0
callate con vos estoy furioso,1
callate no soy intensasolo identifico todo con vos y conmigo jajajajaa,0
callate miau,1
callate portena conxheta,1
sos callate o te cago a pinas pinas ahre se calentaba igual si,1
jajajajaja callate,0
jajskshsksja culiado callate y respondeme,0
callate maldita sea que orita yo pense esto mismo,1
no callate,0
jsjsjsjsj callate no sos tan mogolica,0
no te va a pasar nada callate,1
ya callate pinche marrana mejor sigue hablando de tu padre america que es quien te da de comer,1
tu callate y recoge tu mugrero y tu callate y tragate todo,1
callate hdp,1
jajajajaja callate vos q te metes en relaciones ajenas,0
callate puto anal we ya me tienen hasta verga tus pendejadas,0
anda callate saco de pulgas,1
cuando hay dos que comparten misma locura vida se encarga de juntarles en algun lado,0
y mis canelones maldita perra bruja,1
no tengo plata pero vos podrias invitarme maldita perra,1
sonreir es acto de rebeldia maldita perra vale,1
maldita perra,1
mira maldita perra ayer te escribi y que me dijiste fue tengo regla no vengas con tus dramas mamame qk,1
wtf callate maldita perra que tienes contra gordos dejalo ser tu siempre dices que estas gordo cuando estas flaco y nadie te dice ni mrd sharap bitch,1
necesito finde largo y lejos ruido,0
pero pusieron maldita perra cancion,0
me gusta alguien pero es maldita perra que quiere coger con todos,1
vieja putaporque no te moris mejor maldita perra ladronaojala te pegue sida o cancer o algo mas feo es que te mereces por hija puta,1
calla perra conchatumare vende patria hija de puta larguense de vez china hija de mil puta no va a salir da ir por congreso y espero encontrarme contigo y decie tus verdad maldita perra,0
cuando estas en calle y te encuentras a esa persona que no es tu amiga pero tienes consideracion de saludarla,0
tutorial de como traumatizar a bebe de por vida,0
como escuchar te para tres sin morir poco,0
quiero mis medias maes maldita perra,1
no puede ser q ya sea lunes maldita perra sea,0
y yo maldita perra,1
maldita perra complice de dictadura imbecil decias en etapa de elecciones de tu pais que educacion seria gratuita y que ha pasado con tu propuesta insigne cominista de mierda,0
paren esta maldita perra ansiedad,0
pronto te condenaran maldita perra y tu y toda tu legion de mierdas delincuentes se extinguiran,0
otra vez maana a pinche maldita perra desgraciada bastarda jodida,1
maldita perra cambi historia,1
maldita perra ruka se nota a kilometros que te quieres coger que coraje,1
no sumes puntos narela xq te agarro en verano y no contas maldita perra,1
que mierda cuando mandarinas estan re dificil de pelar te haces desear eh maldita perra,0
maldita perra desgraciada,1
tu crees que esta pura no perrera maldita perra,1
por unica persona que me estreso cuando cuelga es por carla maldita perra sin sentimientos,1
maldita perra jajajaja,0
t destrozare maldita perra,1
fernanda ya nos esta por abandonar primer semana en gap maldita perra,1
maldita perra y yo que te crei,1
manana otra vez a maldita perra bomba caca culo pis diarrea mierda papel cagado meados re contra hija de su muy chingada y reputisima santa verga perra idiota fea y vieja ruca madre casa conocimiento,1
uh eso dolio maldita perra,0
si que salgo con ustedes maldita perra m dejame ver que hacer,0
y tener matrimonio que tiene maldita perra,1
maldita perra haces de nuevo v,1
jajajaja maldita perra,0
deja de escracharme maldita perra,1
camila te amo con todo mi corazon maldita perra,0
maga bombon ni te enteraste cuando m fui lpm viki no jajajajaj maga bombon maldita perra maga bombon tu mama me dijo que coma con ella maga bombon y me fueron a buscarya es parte de mi familia literal,0
para fiesta de,0
jajajaja te odio maldita perra,0
que que le hago a alyn le va duro yo soy mas de epoca de hitler por que me salvaste aberme dejado morir maldita perra,1
era maldita perra,1
maldita perra bomba estupida escuela,0
gente me ca y valeria me pate nojoda maldita perra,1
maldita perra puta distancia,0
maldita perra sin sentimientos,1
vi morir a tu maldita perra drogadicta jesse,1
maldita perra sucia me robaste honor ahora tendras semanas de mala suerte y profundo vacio emocional amoroso,1
anda a mamarte carava de huevo maldita perra sigueme dejando en visto,0
wey eres maldita perra fijona,1
no hay mas,0
estoy en depresion porque ahorita todas series turcas hacen gran promo de sus series subiendo selfies de sus protagonistas pero no fuera hace ano com bizim hikaye porque ni mendiga hazbur selfie nos daban maldita perra suerte que tengo,0
maldita perra haces nada buena para comer y cagar no mas,1
que se iba a ir a dormir maldita perra,1
ya wa encontra algo maldita perra,0
eso porq no fui yo para moverte culo maldita perra,1
maldita perra maldita perra,1
maldita perra ahora veo pequena victoria sola we,0
ya tio maldita perra,0
dia tiene minutos puedes gastar en responderme y otros puedes seguir siendo maldita perra lo siento me altere,1
hoy llora mi alma con lagrimas de tristezas quiero libar hasta ultima de mi sangre para devolver tiempo atras para de rodillas pedirte perdon si te quiero pero ay carajo yo le doy con patas a quien quiero maldita perra,0
dejas hacer su tradicion y despues intentas romperles toto,0
porque libras maldita perra despiadada,1
sufre maldita perra,1
y conmigo maldita perra,1
respirar mirar hola emoticono ahi todo maldita perra es que nos gusta provocar estos eruditos educados en maneras alto paleolitico son pura dulzura,0
si vas a llorar llora de vez maldita perra,1
jaja maldita perra,0
me robaron auriculares en colegio y mi hna creo que se sintio tan mal que decidio prestarme suyosgracias maldita perra enamorada,0
si esa maldita perra pero le amo,0
jajajajajaja maldita perra,0
ay no que asco maldita perra,0
maldita perra mal agradecida te me cuidas,0
totalmente de acuerdo maldita perra,0
y vos maldita perra ni visto,0
maldita perra mentirosa ya estaba recontra cagado susto,0
todxs lxs directioners merecemos algo asi pq putas no fui me ganaste ansiedad de mierda me ganaste maldita perra dexperiencespaces,0
vete a mierda maldita perra estupida intolerable,1
maldita perra vida,0
no ya no quiero ir ya ni chingas maldita perra publicidad de facebook,0
maldita perra desgraciada y zorra depresion no te extranaba verga,0
ya haz putos cambios maldita perra sea cerdo de mierda,1
ay por eso me cae mal esa maldita perra,1
alejate maldita perra,1
basta maldita perra,1
jajajajajaa casi caigo maldita perra,0
en realidad si se es todo tu culpa maldita perra,0
cuando vengas cuando organizamos maldita perra,0
mira tu panza que plana que es maldita perra te odio,0
no debieron de mandarte a to maldita perra,0
ro quiero llevarme ese gato mili por momento pense que hablabas de tu reflejo en vidrio despues vi gato en suelo maldita perra sucia,0
me saliste mas falsa que nada maldita perra hipocrita,1
micaela te amo maldita perra,0
y a alguien mas le gusta tener perra sumisa igual a que yo tengo que rico regalo me diste nada mejor que comer este culito y tratar como a maldita perra,1
dices que te han roto corazon pero cual corazon si no tienes maldita perra y si te rompieron piensa en todas cargadas que te metiste hay algo que se llama karma,1
igualito que mi amigo dogtor maldita perra malagradecida,1
maldita perra vida,0
maldita perra manipuladora,1
art by mbgcore,0
caiate k te fajo hoy maldita perra,1
otra vez no funciono repito si sos hombre y naciste primero de septiembre de y dudas de tu identidad o si este twitt te genero dudas podes hablarmeme ayudan con mi familia siempre quedo con esa duda de donde esta mi tio todo esto se dio en,0
que maldita perra carolina,1
fue tu idea maldita perra,0
que puto asco me da diego maldita perra costaa mamar patetis,0
maldita perra y no quisiste salir conmigo,1
desde que mi hermano tiene novia ya no me dice que veamos peliculas ni que vamos a comer o ya no me pone atencion maldita perra,0
jajsjsjaja maldita perra,0
igualito a ti maldita perra traga pajaros,1
bueno loca ya entendimos que cojes twitteas a de manana a de tarde a de noche a de madrugada bue basicamente todo dia maldita perra alzada,1
unica persona que stalkeaba por gusto se puso twetts protegidos no dios por que me hiciste esto ahora me tengo que buscar otras personas ves que logras maldita perra,0
pensaba que te habia olvidado pero pusieron pinche maldita perra asquerosa cancion,0
jajajajajajjaja maldita perra,0
jlo es maldita perra y podran decir que sea sea pero es maldita perra con estilo,0
maldita perra estupida q hiciste anoche,1
maldita perra callate boca,1
te voy a matar nde zorra,1
yo soy puerta que por mi entrare sera salvo y entrara y saldra y hallara pastosel ladron no viene sino para hurtar y matar y destruir yo he venido para que tengan vida y para que tengan en abundancia san juan,0
cada dia doy mas asco culia me quiero matar,0
calentamiento global parece haberse convertido en religion y comunistas socialistas estan utilizando para matar revolucion industrial y redistribuir riqueza aumentar todos impuestos en mundo es solo castigo puro no hay programa para revertir,0
no kiero morirme me kiero matar,0
no se trata de vocacion se trata de vida o muerte si te quieren matar tienes que responder y matar asi de simple,0
venganza mortal de v e schwabme ha gustado casi tanto como primero es curioso porque todos personajes no dudan en matar y hacer dano y sin embargo no puedes evitar cogerles carino esperare ansiosa tercera parte para saber que sucede finalmente,0
no broo de verdad es que jikook shiper siempre ganando en todo fjsjdjd dios estos trolos me van a matar diaa como no vas a shipear si tremendo material que nos tiran concha tuya,0
me dieron ganas de matar a rati,0
ese hp equipo chico perdio cabeza y si somos contundentes les podemos matar varios mas,0
te vot a matar isabelle,1
me voy a matar,0
tengo cara vuelta mierda me quiero matar,0
otros dicen que fue en ano en asiria donde se cuenta que diosa argantis se convierte en sirena como castigo supongo jajajaja despues de matar x accidente a su amado,0
juro q me voy a matar en cualquier momento ah,1
jue puevlo gueno y savio avisenle a de gn no deben mover ni solo dedo hay que dejarse matar por ordenes mico mandante en peje de fuerzas armadas no vamos a reprimir puevlo pinche presidentucho,0
aqui va en hora pico podes matar asesinar etc pero pasa eso y son amigos ultimo,0
eu quero matar a anne matar,1
por que tratas de hacer contacto visual conmigo me quieres matar,0
voy a matar a mi amiga que me contesta mil anos despues,0
estaba por tw que iba a matar a todo mundo porque gatito no aparecia y aparecio no saben de que se salvaron,0
para para desdemona para porque me vas a matar de ataque corazon liliana mazure quien fuera a apoyar a julio de vido en indagatoria por su responsabilidad en tragedia de once cuando recuso juez bonadio y presento escrito,0
cobardes hptas no fueron capaces de levantarse ante burro en venezuela y si vinieron a robar matar y destruir fuera basura veneca,0
me quiero matar jasjjaja,0
ay amor de todas mis vidas no te portes mal hoy que pronto me vas a conocer,1
segun ultima cifra de numero vas a conocer a ese trapper arg khea duki ecko lit killah midel neo pistea bhavi seven kayne ysy a,0
dios felipe no pienses asi tenes poquitos amigos de plataforma pero ya vas a ver que en tiempito vas a conocer mas gente y vas a tener mas amistades pero no pienses que estas solo porque no es asi salame,0
tu papa como no me vas a conocer,0
pues ni tanto yo creo q son preguntas q solo hacen clasistas aunq yo hago no para clasificar gente si no para conocerla como vas a conocer a alguien si no preguntas por si vida obra y milagros q juzguen por esos actos es otra cosa,0
ya vas a conocer bueno algun dia lejano,0
como no vas a conocer concha de tu madre te voy a caer a palos,1
si vas a conocer ayuda nekjqbs,0
ahora si me vas a conocer de verdad,1
jajekajs como vas a conocer a harry dia d tu cumpleanos me parece que es re injusto para nosotras mortales,0
porque vas a saber que es odiar a alguien con toda alma vas a conocer que es impotencia y peor vas a conocer que es ver a alguien que amas hundiendose sin poder salvarlo,1
yo no jodo cuando digo que aguanto pero no me canses porque me vas a conocer,1
como no vas a conocer a no aparece en billete de pesos solo porque no quiere,0
si puedes consegur perdida de dorado aut naipul premio nobel nacido en trinidad vas a conocer realidades sobre vzla sorprendente es libro basado en historia con documentaciones ciertas,0
espera s y vas a conocer uno d mejorws personajes alias lincoln rey,0
ayer uno me tiro no te conozco esperando que le de pie a algo le respondi y no me vas a conocer tampoco,0
algun dia vas a conocer a alguien q conozca como tragas como te empedas como bailas aunque no sepas o hagas de vga como te vez sin maquillaje sin peinarte conocera por completoy sabes que te dejarate dejara ser y se quedara contigo,0
bonomi vazquez y leal por sus frutos vas a conocer,0
gente me hacen favor de seguir a te re sube con sus tweets y es muy buena persona uqe vas a conocer no como ese re down desde que nacio,0
pero antes de tener hijo calculo que vas a conocer a esa persona y si te parece violento a mierda te alejas antes de tener hijo y abortarlo,0
cs es partido que mas odio y primer descartado soy persona mas anti europeista que vas a conocer y rivera persona mas europeista que vas a conocer literalmente eres tan pero tan imbecil que no has entendido nada,0
feminicidio en bado te veo con otro y me vas a conocer,1
tranquilo jose ley espanola vas a conocer aun mejor dentro de muy prontito con sentencia,0
callate pendeja tenes que sabes si vas a conocer a alguien que te quiere o no a pinas nos vamos cuando te vea,1
vas a conocer mi trauma,1
si vas a dormir conmigo tenes que saber que no me podes despertar con ruidos molestos por ejemplo celular de contrario vas a conocer mi peor lado,1
mira que vas a conocer hoy,0
aqui importante vas a conocer a mks y nachito,0
me critican por endiosar personas y gurl pls endiosas artistas que con tu trabajo no vas a conocer,0
se que tu vas a conocer confio en ti,0
flaca como no vas a conocer hitboy de duki chau,0
dicen que hay fantasma en barracas dicen que si atas panuelo blanco a rejas de iglesia recuperas amor perdido vas a conocer vivencias y creencias barrio felicitasguerrero,0
estoy felizz por tilo esperolo vas a conocer junto a soy super feliz,0
vas a conocer verdadera clase de persona que soy,1
jajajajaj we yo soy menos asquiento que vas a conocer no me interesa que tenga babas si me quiero comer me voy a comer igual,0
hey vas a conocer tenlo por seguro,0
si exacto ella sufre no vos pibe ni siquiera vas a conocer realmente te tendria que chupar huevo si vive o no,0
pequena en mi regazo rapidamente guardo en bolsito azul algunas cosas que crei necesarias y luego de darle conejita de felpa me voy con ella hacia sala comun de ravenclaw estas bien vas a conocer mi habitacion si ahi podras au emdraconis,0
y no vas a conocer nunca,0
si me vuelves a decir como se supone que soy yo chuch me vas a conocer de verdad,1
mienteme dime que no vas a conocer manana a cualquier otro que te haga olvidarme que no va a ocupar mi sitio tras mes,0
dale que manana en keops no me vas a conocer,0
hoy vas a conocer doctor dickson,0
estas en crisis existencial por darte cuenta que nunca vas a conocer a freddy ni ver a queen en concierto,0
foto mas con mi hija y me vas a conocer,0
ya me vas a conocer,1
si me haces mierda puedo llegar a ser peor persona que vas a conocer en tu vida,0
solo fue parte real madrid que era maquina pero como no sabes de futbol no vas a conocer te entiendo tambien estaban hierro roberto carlos y no podian agarrar pero bueno para vos era lento,0
en vivo segui elexpediente con estos son casos que vas a conocer esta noche hasta hs por y,0
tonteria es por que no has amado amor es mover montanas con dedo acariciar brisa con tu cara amor es sentimiento mas hermoso mundo si te basas en toma de decisiones jamas vas a conocer pues amor no tiene logica,0
ria es de mejores personas que me voy a que rezo todos dias a esta hora vas a conocer beba y louis y h te aman,0
en vez de religion por ejemplo todos esos anos de clases de historia repitiendo siempre mismo nunca me ha servido a mi en vida aprenderme anos de dictadura de trujillo entre otras mil cosas mas que no te sirven de nada cuando te vas a conocer mundo,0
ya vas a conocer a drakito reina,0
papa de dibu maria como no vas a conocer,0
no hay ni sentimiento por muy negativo que sea que dure para siempre recuerda que vida es subir y bajar y que timon tienes tu hasta dia que te mueras abraza tu vida abrazate a ti que es mas incondicional que vas a conocer en este mundo,0
cuantas crees que vas a conocer,0
como no vas a conocer ese temazo m decepcionas lud,0
tipico que te enamoras de alguien que nunca vas a conocer en persona putisima vida jajaja,0
hola hay alrededor de miles de millones de personas en mundo y aunque sientas que no vas a conocer a nadie como esa persona conoceras a alguien mejor a alguien que te quiera como mereces que te aprecie y que te haga entender por que no funciono demas,0
te menti no vamos a cojervas a conocer a mi mascota y no te vas a ir de aca hasta que ella se encarine con vos,1
amigo me dijo nunca te dejes llevar por pasado de persona si quieres vas a conocer tu a tu manera y no desde bocas ajenas,0
vas a conocer a tu idola,0
vas a cumplir tus suenos vas a encontrar a esa persona vas a conocer amistades verdaderas y gente que te querra por como eres vas a ser muy feliz no dejes que malos dias te hagan olvidar que todo va a estar bien y que mejor esta por venir,0
mama vas a conocer a marmeshllo muy vieja,0
si te seguis haciendo loca me vas a conocer enojado,1
gracias sec carlos flores y sec tania vazquezpronto llega elecciones mensaje es muy clarocarlos flores con mucho gusto me puedes bloquear como me hiciste en tu pagina como quieras pueblo te vas a conocer,0
es papa de tuiter pronto vas a conocer es multifacetico,0
no vas a conocer mejor de mi hasta que no veas peor,1
si tenes gusto de mierda es obvio que no vas a conocer,0
esta wachita me tiene labios vaginales por piso deja de romper bolas rubia pq me vas a conocer,1
reconoce a personas por olor y esta seguro de senalarlo cuando alguien huele bien en mg o durante qa asi que si vas a conocer a shawn echate perfume exquisito ysi,0
jajaja que estupida gente que se asusta cuando le dicen que te van a golpear o algo o amenazas x twitter entiende nunca vas a conocer a esa puta persona down de mierda,0
vas a conocer infierno y vas arder ahi mismo,1
este dia me vas a conocer como realmente soy de culero,1
babosa t callas me oiste tu vas a conocer,1
segui asi y me vas a conocer,1
wei como no vas a conocer significado de amistad,0
yo soy mas dulce que vas a conocer murmura como si no supiera diversidad que hay en cuanto a personalidades mido eso es tierno imaginate cuando tenga mi pancita voy a ser como duende embarazo,0
no como carne asi que no yo aviso siempre que soy vegetariano y me hacen verduras provoletas etc no tengo mambo con esto se uso para hacer carne pro trato de evitar de que mio este en contacto directo de todas maneras soy veggie menos activista que vas a conocer,0
algun dia vas a conocer a alguien que te vera en tus mejores y peores momentos que va a conocer como masticas bebes y hasta como te emocionas con pequenas cosas sabra todo de ti y adivina que te va a dejar si porque cacho es inevitable mijos,0
ya manana te vemos diego que emocion vas a conocer a mi mama tu fan mas fiel ella es mi sol por favor saludala d,0
psicologo mas furry que vas a conocer nunca bebe,0
bienvenido funtour viajes a expoviajes vas a conocer sus mejores propuestas para viajar con amigos o familia y a precio que no vas a poder creerexpoviajesuruguay outletdevacaciones ofertasdeviajes soyfelizviajando makesomenoise befun espirituwanderlust,0
hola solo vengo a decir que si vas a conocer a tu idolo,0
vas a conocer bebe,0
y vas a conocer mi peor lado por que que mas detesto es que me rompan pelotas a esas horas cuando intento dormir,1
te hace falta barrio prix como no vas a conocer independencia,0
por fin buena sr tenga cuidado que gente de tu partido no te va a perdonar ahi vas a conocer verdadera xenofobia y racismo que hay en movimientos nazionalistas,0
si no empiezas a apreciar que tienes en momento dado y vives momento nunca vas a conocer felicidad porque siempre va a estar paso por delante de ti,0
como vas a conocer nada de eso si eres pvto facha,0
cierren twitter y punto puras estupideces cuando entenderan q esto son solo bits q forman letras en puto pedazo de vidrio nunca vas a conocer persona o inteligencia artificial q te contesta e insulta no tiene sentido q te pelees con tu propio celular x q te dice,0
como no vas a conocer a marina im,0
para terminar semana nada mejor que regalarle squirt a tu pareja noquieres saber como lograrlosigue este hilo y vas a conocer todos secretos para disfrutar de ese gran momento felizviernesatodos,0
jaja ya le vas a conocer,0
dia que tu seas puntual me vas a conocer novio jajajajaja,0
en video vas a conocer poco mas sobre aedes aegypti mosquito que transmite dengue zika y chikungunya si necesitas mas informacion podes llamar o entrar a,0
algun dia vas a conocer no dudes destino lora,1
hoy empieza jornada de y pequeno truco unico partido que vas a conocer alineacion antes de cerrarse es primero busca en tus fuentes habituales por que aproximadamente hora antes se hacen publicas alineaciones asi no fallaras,0
como no vas a conocer a ben stiller ahre,0
es loca hija de puta eso es que es,1
mosca hija de puta quedate quieta y plantate pelotuda orto deja de molestar dale,0
hija de puta ojala y te chingue mono por cabrona,1
tenes que ser muy hija de puta para hacer eso con tal de ver a otra persona mal estas perdida amiga que queres que te diga,1
no se puede tener sociedad medianamente decente con enorme cantidad de gente pendeja e hija de puta que tenemos,0
hija de puta estas despierta hablame,1
me hace tan mal ver estos videos gente no puede ser tan hija de puta,0
pensar que hay gente como vos hija de puta mereces que te caguen bien a trompadas,1
hija de puta te odio,1
si que hija de puta como va a nacer en suecia y no en haiti,0
con esos grumos no querias comerte cacao solo hija de puta,1
por que siento que me tiraste a mi hija de puta,1
no puedo ser tan intensa asi que hija de puta,1
me mato en foto conchuda de agostina que hija de puta,1
hoy estaba sentada mi tia lado mio y me empezo a boludear porque se le durmio pierna falta de respeto asumir que ando garchando hija de puta,0
daiana es hija de puta me vive clavando visto voy a cagar a pinas,1
puta que te re mil pario ojala te mueras hija de puta,1
que hija de puta karla,1
hija de puta,1
que sos vos hija de puta,1
ay que hija de puta te voy a acusar,1
y hacerlo vos pedazo de hija de puta,1
le rompo cara a mina esa por hija de puta,1
por lado estoy contento por pulga y por otro me quiero cortar pija a ellos les toca independiente valle en final y a nosotros mejor san pablo de todos tiempos y a conmebol mas hija de puta,0
q retuieas vos hija de puta si cuando t manda hola t pones r loca sorra,1
ladrillo es mineral peronista hija de puta hagan,0
empeza andar otra vez hija de puta,1
man mi nobia me dijo q si este finde nos juntabamos y veiamos the office donde estuviste todo ese tiempo que estuve atras de boluditas hija de puta,0
verdadera hija de puta,1
no solo le bastaba con que queden grumos no para nada tambien como toda persona hija de puta corrijo hija de mil putas le agrego azucar,1
jajajajajajajajajaj hija de puta a vos no te gusta mayonesa,0
hija de puta si me quisiste vender aprox para batucada de cata que te venis a hacer santa conchuda,1
tiene solo baiven y se endereza sola hija de puta eso si es chancha en arena floja ojo x no te sale en misma situacion sin linga y explorer tarcciona hermosa marcha atras,0
ojala te agarre algo en concha por hija de puta te mereces todo malo,1
hija de puta te voy a yumbar cuebta,1
es perfecta hija de puta,1
japril es de mejores parejas de greys anatomy y shonda es hija de puta por destruirla,0
tenes a manso pibe lado podes valorarlo y dejar de ser forra hija de puta,1
hago pedazo de hija de puta no sabes ni redactar por eso no te dan bola,1
leo se va extremo que hija de puta jajaja jajaja jajaja jajaja jajaja jajaja jajaja jajaja jajaja jajaja jajaja jajaja jajaja jajaja jajaja jajaja jajaja jajaja jajaja jajaja,0
que hija de puta le encanta alborotar gallinero,1
por que gente es tan hija de puta,0
te trabo puerta saliresta bien graciasesta bien si o esta bien no hija de puta que respuesta es esa,1
dos son horribles hija de puta toma agua,0
y va re mal como va super hija de puta,1
entren a su perfil yegua hija de puta,1
es increible mal que me puede poner esta hija de puta que no veo desde mardel y no hablo hace anos,1
quien era de anatomia obstetrica jaksjajjsja yegua hija de puta como te odiamos,0
unico despota es macri que culpa pueblo por votar igual te repito es ignorante es ingeniero y no sabe ponerse traje de obra obviamente su papi le compro titulo gente como yo se tiene que romper orto en universidad para que despues hija de puta,0
recuerdo q estaba durmiendo en de ana y de nada hija de puta se empieza a reir re fuerte casi pateo,0
cerra orto mogolica hija de puta ahi va,1
pesos tanga que es de oro hija de puta,0
tan linda vas a ser hija de puta,1
dormi hija de puta,1
alessi hija de puta au nuevo no justo estoy leyendo mismo tiempo m quieres matar,1
sos careta hija de puta,1
tan hija de puta vas a ser concha de tu madre,1
me dijiste que eras fea hija de puta,1
hija de puta mira esa burra como se mueve ganas de meter lengua en esa concha,1
viejitos son mi debilidad y en ves de estar grabando le tiro con piedra en cabeza a gorda hija de puta esta,1
no vos no chau hija de puta,1
que hija de puta,1
hija de puta vos me comentaste ajjsjaj te estaba por bloquear,0
otra basura de mujer defendiendo indefendible sos igual de hija de puta que otra ojala te agarre acv,0
escuchame a mi entonces pedazo re contra hija de puta me llego boleta de luz de mil lucas re calcada concha de tu madre forra,1
es hija de puta desaparecen hienas ya no habra animal que coma animales muertoscarronia pongamos a ella que coma,0
dios hija de puta que tan cruel podes ser,1
agradece que no te rompieron dos rodillas pedazo de hija de puta,1
jajajaja hija de puta no me cargues tu frustracion te querias hacer piba matematicas y te salio palorto besitos en frente,0
fa mira q hay gente hija de puta,1
mi mente es demasiado hija de puta cuando esta todo oscuro absolutamente todas peliculas de terror se quedan tontas,0
vida es tan hija de puta q cuando menos te esperas te re traiciona me llego a cruzar y cago a trompadas,1
igual cuando se fue de mi casa estaba bien hija de puta esa asique me alegro amigo,1
hija de puta que linda que sos distraida,0
hija de puta preguntale como le fue bastarda d mierda,1
hija de puta proxima vez que digas que sos fea te bloqueo mecuchaste,1
pero q hija de puta,1
jajajajajajajaja q hija de puta,1
dios q hija de puta estoy llorando,1
negra hija de puta perra de oligarquia dia te alcanzara verdadera justicia,1
me siento para ogte que hija de puta ni dia me dura bienestar mas ganas de morir,0
esta hija de puta me cago en tu madre diablo nunca le he pegado ni le pegaria a mujer pero a esta de verdad que le doy pela de vida,1
hija de puta hasta yo te doy maldita diosa,1
pero porque me haces esto sos hija de puta ua vas a ver te odio a aahora quiero llorsr porque extrao a wan na one y vos te res de mi mala,1
defensa hija de puta,1
amo a fernandez es tan ella hija de puta,0
sufriste porque no te pasaba tanga por culo hija de puta,1
uh hija de puta tan bosta vas a ser,1
para hija de puta por favor te pido,1
seguime hija de puta,1
dios hija de puta como te amo mira como tomo birra,0
pero si sers hija de puta hago chupetn,1
que desesperacion ya mate a hija de puta,1
porque soy masoquista hija de puta,1
que hija de puta como desaparecio de mi vida,1
carita tan buena y es tan hija de puta,1
mirenla a hija de puta,1
dios hija de puta empezo a saltar w ayuda que hagio,0
sabes como cruzo muralla y le recontra cago a trompadas a hija de puta,1
querete hija de puta,1
que hija de puta dios,1
malparida hija de puta no porque que tal sea hija de senora,1
a mica le tenes que decir q venga a para que venga a literalmente hija de puta,1
the guy hija de puta,0
esa mujer es hija de puta y espero que proxima vez que viaje en avion le agarre diarrea incontrolable y que este ocupado bano,1
hija de puta no seas asi mi corazon,1
bloqueada por hija de puta,1
que decis hija de puta si sos hermosa,0
story time hoy en partido estabamos jugando tan mal q pablito pidio tiempo para q hagamos abdominales todas y nos dijo hasta q toque silbatoen mi mentehija de puta toca silbato concha de lora dios entienden a q llegamos nos odio a veces,0
che amigo como pija te pone de ciudadania hija de puta,1
no nea que hipocresia tan hija de puta que se mandan esas tres me impacta,0
flaca sos hermosa dios te amo si hija de puta a vos te digo,1
te ofreci mi ayuda hija de puta quejas en orto,1
no hija de puta vos viste que sos,1
gorda hija de puta ojala te atropelle camion basura sorete mogolica de mierda,1
abril hija de puta boca llega a quedar afuera de copa y te mato,1
vete a cuba mamaguebo hija de puta mal nacida hdlhp no debes tener familia coo de tu madre puta vete a cuba,1
a amiga le pasaron cosas horribles y sigue mal por eso obviamente y amiga de ella hoy le dijo ya me cansaste con tus problemas ya no me cuentes dios como puede ser gente tan hija de puta cagaria a golpes,0
no puede ser tan malo tipo cheraa hija de puta,0
hija de puta hacetelo conmigo no me trates como rata de laboratorio,1
hija de puta hija de re mil puta,1
dale hija de puta ganto ruido haces para tomar puta que te remil pario,1
pero si te encanta que sea asi de amoroso hija de puta rockeamosalritmodefloryfacu,1
a hija de puta te re doy,1
pedazo de hija de puta ojala te re caguen a tiros,1
sabe que estaba jugando no es asi cuando le dice hija de puta,1
anos tenes deja de usar xd xd xd xd cada dos segundos y reite bien hija de puta,1
jajajsjsjajsjaja hija de puta,0
eso es ser hija de puta de mucho cuidado,1
todos dias lastima te conozco y se que sos mierda de persona,1
vos sos mierda y yo no publico,1
kpa literalmente te cagaste en ilusiones y esperanzas de muchas personas recien ahora que te exponen te importa sos mierda difundiste informacion falsa y le dijiste a gente que no podia pagar que ibas a subir bring the seul y burn the stage y nunca hiciste,0
porque si actuas bien conmigo y sos buena gente te voy a ayudar en hasta que no pueda y voy a ser ejemplar para vos ahora actuaste mal conmigo y sos mierda preparate para peor diablo en persona para hacerte sentir mal y hacerte mierda en plan soberbio mal,1
vos sos mierda aguante control que pasaban en telefe,0
si sos mierda tengo derecho a decirlo esta bien y no hace falta criticar por ello,1
si sos mierda de persona ya no tenes vuelta atras,0
si sos mierda sos mierda que mas ame en mi vida,1
sos mierda,1
cuando le contas algo a alguien pero minimiza tus problemas diciendo que hay cosas peores jaja vos sos consciente que sos mierda bueno si no sabias ahora si,0
siento que cuando uno madura toque no le importa postura politica partidaria otro a hora de construir vinculo si conmigo sos buena persona yo tambien con vos si sos mierda voy a ser igual colta,0
te siento solo en teoria porque en practica sos mierda de persona,1
sos mierda vos y tu mujer no sirven para nada,1
siempre te sigo a todos lados jaja siempre te sigo a todos lados sos mierda y te odio,1
y vos sos mierda disfrutando dolor ajeno egoista te importa carajo si de lado sufre eso es que nos diferencia a k de sojeros de balcon como vosdisfruta que te queda poco en meses vas a poder sufrir tortura de volver a vivir dignamente,0
estas apagado venenote diste cuenta que sin var y conmebolsos mierdabueno no te me mueras que vas a ir a parar con original,0
cube sos mierda te odio,1
que sorete hijo de puta para que mierda tenes hijos concha de tu madre pedazo de sorete morite extinguite y desaparece sos mierda es bebe ojala te caguen a palos y te corten en pedacitos concha de tu madre para que sufras forra orto,1
sos enferma estas loca y sos mierda pero me encantas y me volves loco estoy q no entiendo carajo,1
no creo que uno deba hacerse cargo si su pareja quedo insegura o con miedo por relacion anterior que hay que hacer es mostrarle que no sos mierda toxica como su extodos estamos golpeados y todos merecemos alguien que nos ame en serio,0
ripio sos mierda ya voy a encontrar forma de hacerte quebrar,1
imbecil de mierda pones foto entretiempo donde gente va a mear y a comer jajaja aca tambien plumiferos estaban meando en banos quimicos o comiendo que gallina pelotuda sos mierda y eso que tienen mas facilidades de ir a ese gallinero deforme ajaja,0
te juro que dia t voy a decir todo que me vengo guardando porque sos mierda de persona y ojala te quedes sola,1
vos sos mierda peor que ese giordano mejor hace sho hipocrita hdp,1
que tan mal le tuviste que hacer para que terminara asi sos mierda y peor es que no te das cuenta mal que haces,0
solo le pido a dios que se lleve a vieja de lado y a fondo si irene concha de tu hermana no te aguantamos ms y a vos tampoco ana sos mierda dos son mierda odio llamagorras insoportables no aguantan ver feliz a gente,1
sos mierda hay gente que se cree posta y capaz viene teniendo dia de mierda y esto lx pone peor tenes que tener dos dedos de frente para darte cuenta que no esta bueno che,0
jajajajajajajaj sos mierda,0
claro pero si messi no eligio a tu tecnico en sus mejores me das asco y sos mierda saludos,0
sos mierda siempre fuiste,1
sabes algo te digo posta sos mierda de personacomo vas a criticar a alguien por su sexualidad acaso es tu problema si a personas me gusta hombre o mujeres cada uno tiene su forma de sernadie es igual a nadiesi a vos te gusta hombres es tu problema pero,0
sigo pensando que sos mierda de persona asi que esta de mas todo que decis todo que hiciste y seguis con cara de seguir justificando todo,1
sos mierda dalas nadie quiere discutir con mierda no vale pena,0
si estas leyendo esto tenes que saber que sos hermosa no sos vos son estereotipos de mierda que nos impusieron solo por ser mujeres te mereces comer y no sos mierda,0
viste cuando no te cierra actitud de persona bueno gorda forra que me venis a preguntar recalcada concha de tu madre si como companera sos mierda que te pensas que siendo egoista vas a llegar lejos mamita metete todo apuntes todo en orto,1
no importa partido si obligas nada de convencer o invitar a tu hijo preadolescente o adolescente a asistir a evento partido politico que sos simpatizante y le queres meter a fuerza tu ideologia sociopolitica sos mierda asi de uan,0
todos se alejan de vos porque sos mierda,1
te crees que sacandome que me gusta voy a empezar a ponerme pilas no amiga ahora me sacaste ganas d vivir sos mierda,1
no sos mierda pero pensas mucho en demas antes que en vos misma,0
vos sos mierda,1
tu conciencia te dice que sos mierda,0
por gran puta claro sos mierda en momento que mas te ocupo,1
ay sos mierda pero igual entiendo,1
educacion privada educacion decenteah es cuando sos cheto de mierda no cuando estudias en privado cuando te crees que tenes algo mejor que resto ahi sos mierda,0
como vas a poner a tus awelitxs en geriatrico y encima no vas a visitar sos mierda humana,0
todo vuelve si sos mierda doble,1
sos mierda sos mierda,1
homosexual es aquella persona inclinada sexualmente hacia individuos de su mismo sexo culero sos vos que sos mierda de persona y te escudas diciendo que fue culpa alcohol,0
sos mierda cargon,1
y eso que tiene que ver con hecho de que sos mierda de persona igual que dalas por usar palabras como retrasado como insulto,0
es para vos coti sos mierda,1
d q te sirve q t vaya bien si sos mierda d persona,1
educacion decente dice dios sos mierda de persona,0
vos sos mierda nicaraguense,1
claro sos mierda,1
sos mierda de ser humano ayudado por rastrojos,1
q onda pipol que cuando les digo que soy daltonico me empiezan a preguntar de que color veo cosas y bueno x ejemplo a vos te veo color marron xq sos mierda de persona sali de aca no me rompas bolas,0
esta caro chocolino sos mierda,0
que hermoso tu feminismo cuando andas por vida queriendo ser lider y sacando gente de grupo de amigas chocate definicion de feminismo y vas a ver que sos mierda de persona,0
si alguien te invita a hacer algo le decis que si y despues no vas y no solo que no vas sino que no das explicaciones ni pedis perdon por faltar simplemente te borras y ya dejame decirte que sos mierda de persona,0
tablets genericas sos mierda vienen mismisimo infierno,0
me tiene que querer como soy si sos mierda no creo que alguien te quiera y si tenes suerte de que alguien te quiera aun sabiendo que sos mierda aprovecha y cambia con esa persona que te haga bien o pensas morir siendo sorete,0
uf llego mi momento estoy tan roto huevos de vos pedazo de idiota siempre haciendote pobrecita haciendome quedar mal a mi y a que me rodean contando y diciendo cosas que no son llorando por pasillos sos mierda flaca al final sos vos,1
si te di oportunidad de decirme verdad y elegiste mentirme dejame decirte que sos mierda de persona,0
lamento mis duros tw son todos con humor y para que afecten tu estado emocional hasta punto de preguntarte si sos mierda x reirte y si sos mierda quien no,0
buen dia para todxs menos para vos que sos mierda,1
y vos mi amor sos mierda,1
tenias razon sos mierda,1
si das asco pena y sos mierda,1
para mi grieta es politica estas aca te respeto que seas que se cante quinto forroestas otro lado grieta y sos mierda de persona seas pute hetero lesbi bi y coso,0
si me tratas bien yo te trato mejorsi sos mierda con migovoy a ser basura con vos jajaja ninguna duda de eso,1
odio gente que se hace victima gran puta sos mierda igual que todos deja de mentir,0
final tu vida es vacia y por eso sos mierda,1
en bar de mgahellx sos mierdayo me encanta ser mierdala hostilidad de gente esta excedida bajenle rayitas,0
sos mierda arriesgue mi vida por ti pero te amo,1
por mas de que cambies por fuera te tinas peno te hagas manos tengas ropa de modasi sos mierda por dentro eso no cambia,0
para que veas que sos mierda,1
por tw ya nos vamos a ver cara euh sos mierdaagrandadeson bostaustedes arreglaron todose vendieronno mansos boludesen carahola bb como estas nos sacamos fotoesto es mierda de pueblo en que vivimos gente,0
q paso no sos mierda,0
tn sos mierda tendenciosa desinformasse merecen invada grabois y les tire pedo en caralo dejo de seguir,0
sos mierda ahora te toca darte cuenta a vos,1
dejame decirte que sos mierda,1
por eso es que te fuiste a b por que sos mierda river chupame bien pija alla te van a regalar penales,0
sos mierda de persona date cuenta,1
vos sos mierda,1
siento pero si manejas en estado de ebriedad son mierda me vale maceta si nunca en tu vida has chocado y que creas que sos super bueno manejando si manejas a verga sos mierda que te valga tu vida es muy problema tuyo pero deja de arriesgar de otros por favor,0
posta me gustaria que alguna persona venga y me diga no se sos mierda de persona o sos buena persona pero que le salga solo asi saber si soy malo por que no se si soy mierda viviente o soy bueno,0
piba sos mierda para que mierda te hice caso,1
no defiendo a brancatelli xq puede hacer solo pero vos sos mierda que hasta pensaras que tu voto vale mas que de otros t recuerdo que si hablamos d populismo tu jefe fue q mas planes entrego en ultimos anos subestiman tanto a gente q piensan q con eso ganan,0
hoy como todos dias no voy a dejar pasar ocasion de recordarte a vos que sos mierda igual que toda tu familia,1
es que pichot es mina que si no compartis sus ideales sos mierda y te descalifica eso si podes ser abusador hijo de puta pero si tenes sus ideales no pasa nada,0
vos sos mierda sabes,1
jajajaja sos mierda sabes,0
yo no vos que sos mierda si,1
sos mierda de humano,1
hace anos soy adherente y no me pasan a activo sos mierda tano,0
sos mierda con carino,0
posta q no entiendo como hay gente q te quiere tanto si sos mierda,1
vos sos mierda no ka primavera ndea,1
si sos linda te odian y si sos fea te critican si sos gorda te hacen sentir menos y si sos flaca sos enferma si tenes novio sos cornuda y si estas soltera sos alta trola si sos buena te boludean y si sos mierda te va mejor en otras cosas que sociedad orto,0
podes ser muy linda de fisico pero si sos mierda como persona para hablar tan mal asi y encima discriminar de que te vale,0
flaca metete en tu vida que tanto decis que queres mejor para mi boluda sabias que yo era que iba a contar todo cuando sienta que sea momento yo te dije sos mierda de persona boluda sos pedazo de mierda te odio con toda mi vida flaca,1
ves q sos mierda,1
cayetana hija d puta t odio loco sos mierda,1
yo quiero ir a fiesta pero admiti que sos mierda dios estallada ajajajaj,0
sos mierda de diputada,1
me duele mucho alma verlos a baekhyun y jongin tan desgastados seguro les duele todo y se siente mal pero ellos van a tratar de mostrar que estan bien para no preocupar a exol dios sm sos mierda quiero que descansen y no hagan comeback si es necesario,0
mis respetos a que dicen que montevideo es mierda estoy aca y verda que si montevideo sos mierda,0
martina en pedo es peor que lauty en pedo ayer me decia sos mierda pipi cada seg y por absolutamente todo,0
te veo y pienso como pude haber estado con vos si sos mierda de persona,1
ailen te voy a matar,1
siempre te voy a elegir a vos,0
de verdad claro que si te quieres lanzar salado no te voy a dejar xd despues que le decimos a tu familia,0
todo bien sergio escuche tus criticas gobierno te voy a votar porque otra no queda pero que era este gobierno sabiamos desde primer momento asi que seria bueno saber por que apoyaron hasta casi final,0
baby chequeate que te voy a mandar,0
aca voy a estar siempre sabes perfectamente donde encontrarme te voy a estar esperando,0
no se a que hiciste referencia pero no te voy a contradecir porque odio economia jajajaj que me gusta es tan infimo que no tengo remate amiga,0
te re extrano culiadasx te prometo que despues de octubre te voy a ir a visitar seguido y vamos a comer todas milas a napo con fritas mundo,0
te voy a dar yo pin y pon en toda frente,1
jajajajajaja ya te voy a contar reaccion en mi casa cuando me vean,0
que te pasa con mi wacha te voy a romper cabeza dea,1
mismo te digo hijaeputa te voy a rajar,1
dios no me digas t extrano no ves q te voy a tener q ignorar,0
neta te voy a pegar,1
que me faveas capa voy a ir a tu casa y te voy a educar,1
chupapija de mierda te voy a encontrar y te voy a recagar a viajes imbecil,1
diferencia es que a vs te quiero ver bien a mi no me importa hacerme mierda ahre igual haces q queres siempre callate nms pq te voy a chapar perra estupida,1
te voy a tirar chispa que te hace falta,1
te voy a a cagar a pias te explicas re mal,1
te voy a dar cinco segundos de fama en twitter tus lectores sabran que cuenta seria te tomo en cuenta por segundos esta displicencia es para mandarte a comer cerrito,0
bella mujer belleza total bella tu cara bello tu cuerpo de bella morena de foto me gustan su bello y elegante traje de bao en azul su bella pose sus ojos cerrados su boca y su bello pelo fabuloso miercoles para ti mi amor hermosa candice te voy a mandar,0
como te voy a intimidar y encima por eso,1
te voy a seguir,1
no te voy a soltar mano ni aunque me pidas,1
uy flaca te voy a pegar,1
encima te voy a volver a cagar a palos pajerita,1
te voy a pegar,1
te voy a robar virginidad si seguis siendo tan down,1
te voy a mandar a que te fajen,1
sos hija de puta otra vez te voy a cagar a pinas,1
entonces te voy a poder henebrar jeje que bien te queda esas medias caladas que debe ser verte venir sera mismo que ver ir,0
cuando ponga gope en araucania cuando regule inmigracion masiva cuando elimine ideologia de genero cuando dejen de dar de baja a carabineros cuando baje impuestos cuando deje de firmar cualquier tratado de onu ahi te voy a creer ahora es progre,0
jajaj proxima te voy a hacer caso te quiero,0
policia policia de noche y de dia bolillo ventiao subete hijueputa que te voy a llevar a universidad pontificia javeriana,0
anda a defender esa pelotudez flaca no te voy a sacar de tu burbujita bss,1
te voy a destenir a punete,1
camila que haces con esa foto te voy a matar,1
y que sepas que te quiero muchisimo y quiero mejor para vosespero que vida te devuelva doble de lindo que me distey que entiendas cosas hoy para no volver a equivocarte dia de mananaen fin siempre te voy a llevar como marca en corazon te amo,0
esta es cara de alguien que extrano demaciado taquitos de su queridisimo mexico ahi te queda itacos yeso depsta asi te voy a disfrutar yo bb cuando te encuentre,0
te voy a dar pero patada,1
ahora te voy a robar a tu casa traka mabel no se te ocurra estigmatizarme eh ojito,0
te voy a pegar,1
no te voy a mentir,0
que te voy a llevar aparta amigo que ya casi vuela gracias a dios verdad chorizo esta muy bueno es de pura carne nada de colorantes,0
cuando en salida de establecimiento le digan que van a requisar responda estas consciente que no estas facultado para esto mientras me requisas te voy a grabar y enseguida me voy con video a fiscalia a poner denunciale aseguro que piensan mejor,0
no se por cuanto te estuve esperandopero se que te voy a disfrutar cada puto segundo,0
ya te voy a agarrar bonita,1
ya te voy a encontrar a vs en calle,1
te voy a amar hasta morir,1
si te veo en calle te voy a dar pinches cachetadotas por lastimar a de personas que mas quiero maldita,1
yo te voy a traer algo que te va a gustar,0
no no te voy a decir quien es,0
plataformas digitales donde podes encontrar notevoyafallar youtube spotify apple music deezer amazon music youtube music,0
a emma te voy a revolear,1
te voy a mandar jeta pa yaritagua mardita,1
entonces no vas a pasar mal si voy a estar yo,0
y mas triste es que a hs vamos a prender igualmente tv para ver partido sabiendo todo esto con anterioridad que vas a pasar mal e indignar,0
y por eso es muy recomendable apagar intelectualoide para divertirnos haciendo gilipollas rato de contrario vas a pasar mal a menos que encuentres grupo con misma curiosidad intelectual,0
ya vas a llorar xq vas a pasar mal,1
y claramente no vas a pasar mal,0
no mejor no porque vas a pasar mal vos,1
vos seguime a mi en todo que conmigo nunca vas a pasar mal,0
vas a pasar mal todos dias y no da,1
que tu novia no te deje ir a juntadas con vagos neseparate man por que vas a pasar mal resto de tu vida,0
no es carga moral si no resolves probablemente vas a pasar mal pero podes elegir quedarte margen gandalf tambien puede elegir no resolverlo aunque su eleccion esta menos condicionada puede rajarse a ibiza con mandato cumplido asi no putean en calle,0
hay transitos que no van a ser hermosos y seguramente vas a pasar mal asi tiene que ser es vida no hay vida llena de luz de malo tambien aprendemos pero no es que saturno o pluton te haga eso sino que resonamos con que sucede por eso le dicen sincronicidad,0
mejor no vas a pasar mal,1
entonces no mejor no seguirla si te ilusiona y despues vas a pasar mal,0
me falto meli que conoci hace muy poco y sinceramente cuando estoy con ella es como q se me reinicia todo nunca vas a pasar mal con estas mina lpm sos mas te amo,0
trata de tomar mas que puedas por fa ademas pensa en que no tomar nada de agua ralentiza metabolismo no solo vas a estar deshidratada y reteniendo liquidos sino que es posible que termines constipada vas a pasar mal,0
donde solo somos nosotros y no nos van a molestardonde no importan otros vamos no vas a pasar mal,0
habia clima de calmacomo decir si sos delincuenteen calle vas a pasar malhabia choreos en casas sin gentepungas en transportespero no habia asesinos chorrosy humildes trabajabanno robaban,0
no leila vos sos buena gente pero te rodeaste de gente de mierda yo soy buena persona tamb pero soy reverendo hijo de mil puta pero nadie se caga en mi y q me conocen son pocos resto ni me trata pq no me conoce deberias hacer mismo sino vas a pasar mal siempre,1
ay pensar que antes me daba verguenza que me vean agarrando toallitas ahora ando con collar huesitos de marge pero de toallitas por vida mira si voy a discimular que estoy pasando como orto ahora vos tambien vas a pasar mal,0
y no se porque pero eso me da sensacion d q si t agarra dia d tormenta vas a pasar mal con suerte si no t agarra corriente,0
convivo con eso todos dias de mi vida avistumbrate que sino vas a pasar mal,1
para salir con pibae que sabes que tiene todo levante tenes que estar mas seguro de vos que cualquier otra cosa porque vas a ver mil veces que se le tiran personas mas lindas que vos fisicamente todo tiempoy si sos inseguro vas a pasar mal,0
vas a pasar mal veces mismo dia,1
ojala todos tuvieran padre como tuyo valora valoralo ahora que tenes porque cuando no tengas vas a pasar mal,0
no vas a pasar mal porque vas a estar conmigo,0
boluda antes de tener novio aprende a estar sola primero sino todo se va a ir carajo deja idealizacion de relacion de lado pq te vas a dar contra pared y vas a pasar mal,0
con helado como vas a pasar mal,0
nunca vas a pasar mal con nosotras,0
mucha suerte dale bola con recuperacion de nada de grasas y sobre todo comer cada horas aunque sea pedacito de queso no importa cantidad sino que tengas algo en estomago sino vas a pasar mal me conto amiga,0
podes tener todo escabio y todo chow pero si estas con gente equivocada vas a pasar mal si o si nunca mas con estos loros,0
salir conmigo de joda es mejor que hay no vas a pasar mal y nos vamos a tomar hasta agua perro,0
vas a pasar mal sin mi,1
quiero presa a gente q saca celular cuando pelicula ya empezo en medio cine para subir historia a ig,0
no hay nada que valore mas que esto,0
trola brenda trola si me muero me cremas y cenizas pones en planta trola me escuchaste,1
buenas noches trola,1
mutual fav interactuemos manga d trola,1
hija de puta te crees graciosa hace mas de anos vivo en once te voy a bajar todos dientes trola,1
trola,1
elijan y comenten aqui mismo famosa a que tienen mas ganas de hacerle esto por trola,1
tipos de consuelo trola,1
trola d mierda,1
yo igual soy re trola jajs,0
me dicen zurda gorda torta puta trava hna de jhonny allon trola mediatica vieja todo es cieo y ganome tenes miedito,0
flaca sos d mwjores personas q tengo dios basta no m quiero poner en trola pero t amo,0
me ests diciendo trola benicio ok asi quedamos,0
sos mas trola,1
extrano personas que dentro de su mente solo debo ser mancha patetica y solitaria,0
pierdo tanto tiempo en persona que no se le caen ni segundos para mi,0
trola te odio,1
pedazo d trola t odio,1
uu trola te amo mucho sos re pelotuda soy fan de tu belleza contas conmigo para todo te amo te amo puta no olvides nunca,1
como estas trola,1
sos re trola agostina comodo vas a comer a tantos,1
claro porque pone pavada es trola puta pajera le hace falta y puedo seguir y seguir ahora si ellos ponen algo sobre cu de sol perez y otras son super machos re vivos superados son desastre,0
minas que te odian hacen exactamente mismo no te quieren ver bien quieren ser solo ellas y te viven tirando mierda que llegan punto de decir que sos facil trola rapidita por querer conocer a pibe donde ellas no se portaron bien y no saben soltar mierda,0
sos mejor q me paso dios no sabes trola q me pones t amo mucho,0
agradece que cosseti no te incauto oregano pedazo de trola,1
sirve ser trola tambien,0
y vos cerra orto trola de mierda uy,1
les tengo carino a mis mutuals parezco trola pero tqm,0
seguis con tu vida y sos trola no me sabia esa,1
algun dia ahora quiero coger con todos we re trola,0
ah no ese no jaja que trola de mierda bueno ya te cuento por chat,0
trola sos vos,1
hay que ser sinceros en esta vida pedazo d trola,1
eso y gritarle master tu mam me ata cordones y es trola no me voy a olvidar,0
pedazo de trola contestame por wpp o rompo algo,1
jajajajajajajajajaja y a mi me matan por trola,0
ay nena ss maleducada pero no culpo asi te debe aver criado trola de tu madre,1
por reirnos de eso trola jajaja,0
que me clavas visto trola,1
amistad es sinceridad adjunto chat a m fio te acordas cuando ibas a iglesia a m fio y flasheabas puritana a m fio ahora sos tremenda trola a m fio descarriada de mierda,0
cerra orto trola mi religion no permite,1
y no m venis a ver trola,1
que trola que es gab a estas horas,1
eh que te pasa con cafe instantaneo y si soy trola cual hay ahre,0
trola t amo deberiamos hablar mas nosotras ademas d en grupo,0
que trola esa jazponti,1
che de que signo sosde que tengo carade trola pero yo quiero saber tu signo,0
ana es trola,1
esa rayita re trola era,1
basta q trola me pongo jahdkaj quien me mando a tener crush,0
me estoy empezando a chuyar con futuro profesor de educacion fisica cuado y cmo pas no se solo soy esta trola,0
era obvio que sos re trola,1
anda trola te presto mi galera y mi ojo de vidrio si queres no more drama,1
y era hora trola de moria cree ser duena autoritariasen buena hora silvi,0
trola de tini desesperada por hit fresa esta en spotify esta cerca de romper record de paulo londra en apple music mas videos que superaron m este ano ademas que su gira es exito rotundo en estadios sin necesidad de regalar entradas en discotecas,0
no se traga traga bala de contrato con mina si trola esa estaba en todo salta sabe que se come ganzo este,1
sos trola,1
mientras tanto iban saliendo de a uno de abajo de cama para para pero a donde vas corriendo asi de feliz con esa mochila marta a saludar a trola reina pop ma,0
jajajajajaj nada pelotudo era boludes mia pero voy a quedar mas trola d normal,0
q pendeja sos sucia mugrienta te odio no voy a verte por decirme trola y ponerle s a mi nombre,1
q pedazo d trola q sos,1
estoy llorando trola t quiero,0
para ver a trola d letisia dios,1
trola,1
te amo trola,0
loslas tkm a todosas re trola soy loco,0
seguime trola dea amo tus puntos de vista en varias cosas y como dices eres stan d blackpink deberiamos hablar que precioso layout,0
pedazo de trola,1
trola de tini really cuando van a entender q no es competencia asco me da personas que denigran a otras,0
vos sos mujer de mi vida te amo muchisimo y me haces muy bien gracias x bancarme siempre sos persona mas hermosa que conoci y q tengo en mi vida no t vayas nunca xq sino t voy a tener q ir a buscar y apunalarte en rodilla trola de mierda,1
te amo mas trola asquerosa y concha,1
jajajaja te amo negra trola,0
vos me seguis respondiendo y es falta d respeto mo responder chota puta trola picky pija,1
dios q hijo de puta que eras derek te odio te detesto egocntrico y egosta nunca nos olvidaremos cuando le dijiste trola a meredith por chaparse veterinario cuando vos volviste con tu e s p o s a despues de q ella dijera so pick me chose me love me perdon pero odio,0
yo tomo salus y me pongo en modo trola tengo pruebas y cero dudas dea,0
cada dia me extrana menos que les hayan colado trola proces si es que no saben como funciona nada ni mas basico,0
tengo luna en trola o asi no era,0
mismo digo de vos trola,1
yo a mis amigas no les doy consejos les digo perra que eran antes mugroso por que estan mal y les hago acordar trola que son,0
tan trola que duele,1
vas a comparar gato con puta o trola malisimo,1
y si sos mas trola,1
luana trola quiero fotos de tus,1
mira trola ami no me amenazas que te pasa y no me quiero banar cholas son mas mugrosas y huelen peor banarte tu,1
habra sido de colon desde trola esa que sienta pasion desp que hable yo naci con l corazon rojo y negro ella nose sebe qu con l corazon ll no de pija,1
cantidad de ojetes que vi hoy en esta red social como se nota que tienen todas ascendente y luna en trola,1
jjajajajjaja que trola que sos,0
callate trola y hablame,1
dios trola deja d dar tanta pena flaca,1
si yo lloro vos tambien trola,1
yo si me bano trola,0
karen no te pongas trola ajjajjaja,0
brisa es re trola en fondo,1
ya se trola,1
mas trola siempre va a ser mejor opcion,1
pero me acuerdo de q conchuda de mi tia sofimodon trola de mierda no va a ir entonces estoy asi,1
y bueno amiga te quiero bien trola siendo gauchita mas que nada,0
bueno chupate pito trola,1
no seas trola man esto se saca adelante,1
que peligro leer estos tweets para impulsiva como yo,0
siempre le termino cayendo a mis amigs perdon tengo venus en trola,0
te cambio mil veces joda por esto si,0
no seas trola,1
m estiy hablando con uno de y solamente puedo imaginarme a mi abuela diciendo que soy trola ajjajajaajaka lpm,0
me amas trola de mierda ahre,1
yo no puedo creer trola que soy cuando estoy de joda sobria o en pedo,0
que etapa horrible s de que cumplimos en yo miro fiestones de ahora y estan todos hermosos con traje y vestidos increibles makeup de lpm y bueno despues nosotros que caiamos como recien salidos penal y si te maquillabas de mas eras trola,0
uf soy re trola entonces,0
no t das cuenta que te tiro tweets pedazo d trola,1
me da pena polino gorda trola de tocahongos le saco nudes y publico o no me acuerdo si fue roberto probablemente fue tocahongos,0
si te gusto hablame parezco incapaz pero soy re trola,0
ailin trola de mierda desbloqueame,1
loca atrevida buscafama trola,1
trolos lloran basta trola manana no duermas siesta entonces,0
re de trolo ser mi companera y enojarse porque le dije trolo en vez de trola,0
pedazo de trola ya te extrano,1
re trola,1
puta trola sali oles mal,1
no se que me pasa ultimamente que quiero besar a todo mundo ahre trola tipa,0
senora perdio zarpado en paso no nos quiera hacer creer que pueblo apoya pues ni mi vieja que es alta faxa y poco trola te banca,0
nunca dejen su celular lado de trola de antonella,1
vieron que hay gente que toma alcohol y se pone violenta yo tomo alcohol y me pongo trola ahre,0
algunos escabian y se ponen a llorar o violentos bueno yo me pongo en modo trola,0
unico bueno dentro de todo de estar enferma es que duermo casi todo dia pero no me estaria sirviendo porque me estoy quedando con facu como ano atras aprox,0
enfermita de mierda,1
me enferma vagos que usan minas para garchar,0
que enferma que ests,1
jskajdksk alta infeliz no se que vas a hacer si no tenes amigos ya que pobre gil que tenes de novio en algun momento se va a cansar de tener a tremenda enfermita de novia y te va a dejar,1
este tipo me enferma podemos todos empezar a reportar su perfil,0
sal de tu casa a ver como se vive todo eso pues hija de puta enferma,1
amenaza enferma pagada esa,1
que hijueputa gente enferma y todavia se preguntan muchos por que nuevas generaciones no quieren tener hijos mas en pais como este lleno de corrupto falto de oportunidades sin empatia asqueroso,0
q enfermita,1
joker retrato perfecto de sociedad enferma mexico social,0
dios gente sta tan enferma,1
bueno pincheto segun ud podria en su mente enferma de facho pero ud pudo sin potencial instar a dinamitar villas no,0
maldita enferma fanatica,1
exactamente oposicion pedorra de quinta moralmente derrotada esta enferma,1
fases de corrupto mientras navega en impunidad se denomina asi mismo contrapeso cuando les cae ley se auto llama perseguido politico y ya preso se enferma de muerte,0
cada vez q estoy enferma me vengo de cabeza donde mi abuela con mi mama xq me re miman amo a estas mujeres,0
pobre enferma anda a trabajar a ver si sabes que significa sacrificarse para tener negocio propio,1
me enferma gente que te contesta asi nomas si no queres hablar no me contestes y listo perdemos tiempo sino,1
che cuando me lleva yisus tipo me amaga x estaba enferma por vez modo dramatica,0
troll correista que emite fake news e incita odio denunciar esta cuenta manejada por gente enferma y con mentalidad de delincuente denunciaralosborregos,0
me invente super gripa para poder quedarme mas dias en mi rancho y ahora s estoy enferma ptm,0
sos enferma,1
solo a mi se me ocurre no venir tan abrigada cuando estoy enferma y hace frio,0
vulnerabilidad es fortaleza humana es actitud proceso que permite purgar y sanar que no liberamos nos somete y enferma,0
si fuera tu empresa enferma de mierda estuvieras feliz o arrodillada que no te saqueen a delincuentes que aplaudes rata es tu patron que esta escondido moviendo a titeres a su antojo como vos pendeja,0
esta familia esta pasando realmente mal debido a grave enfermedad que presenta su madre sus ninos han tenido que vivir en pesimas condiciones ayudanos a entregarles mejor hogar y mejor calidad de vida aqui,0
no tienen idea de enferma y cansada que me siento,0
como me enferma cuando les decis verdad y se enojan,0
efectivamente quede como payasa pero como es qu si ellas ganaron pre votaciones entraron a listas de billboard y tienen buen stream etc etc me tienen enferma,0
estas enfermapcas themusicvideo boywithluv,0
yo dejo de comer bien tres dias y ya me veo como si fuera gimnasio no se si es mi cabeza siendo enferma o que de verdad cuerpo cambia ayuda,0
jajajajajajajajajajajajajajaj que enferma,0
le mande mensaje a mi jefa de que me sentia super enferma y me dijo que me tomara dias necesarios para recuperarme,0
senor galan es hora de cambio positivo para capital ciudadano se enferma de estres por falta de buen sistema de transporte se requiere buen sistema de salud mejores vias buscar alternativas para acabar con trancones,0
he visto recien banadaenfermamolestatristecon ropa de casaen pijamasin pinarse y sin gota de maquillaje y me sigue pareciendo mujer mas perfecta y preciosa de todas,0
parece que tengo como ano enferma ya,0
esa es hija de puta enferma no hay otra explicacion,1
estar enferma es algo que me pone de tan mal humor,0
como odio estar enferma porque no muero de vez,0
estoy enferma de gripa y tos y hace mucho frio solo traigo chamarra y bo traje bufanda cha le,0
como te amo enferma,0
no olvidemos que camila hizo esta presentacion con sinusitis estando enferma y todo se mando muchos cambios de nota notas altas y demas senorita en vivo acustico rompio toda,0
de acuerdo y eso enferma recibir tanta basura diaria enferma toca alejarse de tanto en tanto,0
dicen que si publico se me quitaenferma,0
gente esta enferma en serio,0
he visto recien banada enferma molesta triste con ropa de casa en pijama sin peinarse y sin gota de maquillaje y me sigue pareciendo mujer mas perfecta y preciosa de todas,0
educandoalapobreria todos sabenos que para siarrea en ninos o cualquier deshidratacion especialmente por dengue o cualquier otromproceso febril se debe rehidratar a persona enferma contrario a que se cree forma mas efectiva es a traves de via oral pero como,0
enferma mentalsuperarlo es todo pais conscienteno todos estan locos y pendejos como tu con tus delirios correistas,0
me enferma gente que no tiene ganas de trabajar y te trata como orto pero que patada en cara,0
asociacion con que colaboro busca hogar para boss su duena conchi esta muy enferma de cancer y necesita tranquilidad de saber que alguien cuidara como merece cuando ella no este esta en zaragoza pero podria viajar especialmente a galicia,0
estoy tan enferma que unico que quiero es quedarme acostada pero voy a tener que ir igual a u porque tengo que devolver libro y no quiero que me multen,0
re mama preocupada que estaba enferma mi hija y resulta ser que le estan por salir paletas de arriba,0
como me enferma que se enojen por cualquier pelotudes,0
estas enferma en serio que le hiciste tienes metidisima,1
estoy enferma y me viene a visitar vivo en loma culoradal,0
ayer le dije a mi amiga que estaba enferma y no queria ir a trabajar ratito llego a mi casa con heladito que me encanta y forrito para cel que queria hace mucho me acompano trabajo para que no estuviera sola se quedo en mi casa,0
cortejo de xv este sabado y enferma que yeta,0
no es sociedad es prensa de graa socia de odebrech esquizofrenica q maana tarde y noche azuza violencia contra congresista q son sus enemigos miserables manipula enferma a poblacin de odio buscando impunidad,0
estoy tan putamente enferma,0
enferma de mujer,1
gracias lady usted siempre tan amable se encontraba enferma,0
buenos dias sr presidente me llamo da iel zabala necesito su ayuda soy hijo unico mi madre esta enferma no tenemos hogar propio vivimos arrimados desde hace mucho tiempo he buscado comunicarme con usted y no he podido le pido le ruego ayudeme se,0
vos sos enferma tambien nadia,1
caso externo la duena de esta perrita tan guapa se ha puesto enferma y no puede hacerse cargo de ella tiene anos y es muy buena y tranquila buscan acogida para ella si puedes ser tu ponte en contacto con numero de fotoacogida salamanca hogartemporal,0
amaneci medio enferma y con ojeras enormes ustedes bien,0
no es enferma es tipa adoctrinado para decir estupideces nada mas,1
borrega tarada enferma tienes que estar drogada para escribir pendejadas,1
ay tia y que digas si vivieras en vlc tendrias paella gratis en bar luego fuegos artificiales en rio dia siguiente mascleta luego playa y por tarde cine ese plan queria hacerlo con amiga pero esta enferma y no me apetece ir sola,0
mi mente esta demasiado centrada en contar calorias pensar en suicidio y buscar forma de mantenerme viva que no da para escuela estaba en examen y no podia concentrarme en otra cosa que no fuera horrible que soy y ruido de mi estomagoasi o mas enferma,0
voy en combi y estoy muy enferma tosi poco y chava que estaba a mi lado se medio alejo y despues se super cambio de lugar mamona,0
y silbato de color amarillo por eso estuvo de ano investigada primero detenida despues sin poder salir de su pueblo ni con permiso para ver a su madre enferma ahora exculpada pero en limbo ya que no han cerrado su caso por cambio de jueces justicia,0
a justificar sueldo definitivamente esta gente esta enferma,0
persona que me dice estar enferma critica mi aspecto fisico que me veo cansada demacrada sin brillo me dice a mejor estas enferma como yo a mejor parce nadie sabe de nadie a mejor es que quieres que alguien sufra contigo no se,0
suena increible pero es verdad gente enferma,0
haced favor y mirad esta foto corresponde a cualquier programa participativo de tv television profascista sediciosa catalana podeis comprobar pluralidad de publico llamado a opinar mas alla de nausea que suscita esta pena por sociedad enferma de odio,0
no intento evitar detencion de vendedor ambulante intento confrontar con policia tiene en su adn por ser hija de asesinos guerrilleros y proyecta ese trauma por favor es verguenza pagarle a enferma mental como donda vergenza,0
se buscau r g e n t ees muy pequea y est enfermazona aragn,0
me llega a ver recien banada enferma molesta triste con ropa de casa en pijama sin peinarme y sin gota de maquillaje y me deja por fea jajajajajjaj,0
te esta dando contencion su amor y sabe perfectamente bien que te sentis mal entonces esta absorbiendo tu estado estan con mejor enferma pronto muuy pronto te sentiras maravillosamente bien,0
estar enferma me pone toda sensible toda tierna quiero estar acostada y que me hagan mimos,0
he estado enferma pero ya estoy mejor y pronto habra articulo nuevo en blog sobre hacer dialogos y nuevo hilo de mitologia que quieres leer,0
me parece super enfermo no poder preguntar que esta mal con alguien y escarbar en sus redes sociales para hacer como que sabes todo gente enferma,0
enferma hija de puta,1
te enferma no hacer nada,0
entonces ahora sobre protejo demas me importa culo si ven asi pero yo no quiero volver hospital con mi hijo peor o algo no quiero saber de hospitales hasta que me toque parir y por que es obligado me enferma vida que quieran decirme que hacer a estas alturas,0
crisitna no deberia viajar a cuba dudo que florencia este enferma viviana canosa moderadora,0
esta hija enferma estimado menos fanatismo seria bueno,0
q onda q ponen coso d preguntas y responden haciendose ricas pero q t pensas q sos pampita enferma,1
porque tenes sapo en mesa enferma,1
holasoy constanza y necesito trabajarse que es muy dificil asi que ofrezco todos mis ahorros que son a quien me recomiende o me tome en trabajo realmente estoy desesperada mi mama esta muy enferma y tengo a mi hermana para cuidargracias,0
de ninera enferma y todo,0
despertate enferma,1
bebeta tu papa es tecnico informatic no no es tcnico informtico y no estoy de router pelotudo no me vengas con tus chistesitos sacados de tweets de thiageto pero me habia dicho que me habia arreglado computadora enferma anda a psicologo,1
hola chicoschicas perrita de conocidos esta muy enfermita y estan haciendo rifa con costo de es muy facil participar solo tiene que mandar ss deposito y listo ayudemos a esta preciosa,0
estoy harto de esta enferma,1
tanto resentimiento enferma,1
es enfermita,1
flaca no estas bien de cabeza otra enfermita adoctrinada,1
enfermita y con fiebre te invita a que cuides en su cama nudista te animas,0
como consienten a enfermita,1
tener a y que no pueda salir por estar enfermita y mas aun con este vientono se valesenora pacha mama cambiame clima,0
valgamedios salgado malita corazon mentirosa como no esta enfermita cuando grita levantar mano corre y casi se mecha como pandillera en congreso estupidos q creen nosotros no lr,0
vivis enfermita vos,1
esta enfermita vale,1
pero apoyas a enfermita esa que es terrible homofobica date cuenta de que desprecio de ella va para vos tambien,1
levanta materias enfermita,1
pendiente de tus tweets vos sos que me citaste uno ridicula ustedes me stalkean y se ponen de acuerdo para retwittear ciertas cosas no te hagas boluda y me quieras dejar como enfermita a mi cuando que esta obsesionada sos vos,1
re enfermita,1
esta enfermita,1
me vas a agradecer cuando no termines mas enfermita de q ya estas,1
digo por profe enfermita con razon te rebotan,1
callate enfermita si sos re idiota,1
oh seran malos han aprovechado que estas enfermita en cama para cogerte pc cuidate guapa,0
raza enfermita dios les mande su sanacion,1
buenos dias mis amores aun sigo enfermita pero no me olvido de uds por aca este regalito espero les guste ya saben agenden sus citas besos,0
cuida tu cuerpo cuando pide descanso escuchalo resultado enfermita en casa,0
felizmiercoles para todos espero que tengan ameno y productivo dia yo les escribo desde cama todavia enfermita pero menos con fiebre mas baja que ayer poco a poco a punta de acetaminofen,0
bueno enfermita como viniste t vas chau,1
ando como enfermita,0
no puedo toy enfermita ademas mis papos pagan impuestos,0
pero pegate bano delfi raja de aca si tan mala sos te espero aca en puerta entonces pedazo de enfermita,1
alta enfermita entraba,1
basta enfermita,1
tranquila viejita que pronto saldra tu codinome por eso te estas haciendo enfermita desde ya,0
q decis pedazo de enfermita,1
enfermita,1
holis familia como estan espero que bien y perdoneme por no hablales ayer como le dije pero les aviso que ayer amaneci mal y enfermita y con gripe y con tos y con fiebre y hoy sigo igual pero npse precupen todos y todas estoy tomando pastillas y estoy tomando supa,0
que casualidad que poderosos nomas entamban y se ponen enfermita solo a perrada nadie escucha porque solos se tienen que lamer sus heridas y ni curita les ponen,0
fua che mala porque no me paraste si tanta bronca me tenes enfermita tanto hacerte ver gritandole a tu novio que corte y otro muy malo tambien le grita que le va a romper boca y sigue de largo bien q miro tu novio cuando me di vuelta para ir para ahi,1
que enfermita,1
entonces sino te importa para que comentas sos enfermita,1
alta enfermita,1
que te pasa enfermita,1
mas enfermita que otra,1
ademas de enfermita hipocrita pobre,1
me chupa huevo q hagas asi que tomatela de aca enfermita,1
hay enfermita en carrera que se dedica a recomendarle a demas que se cambien a otra carrera segun que a ella le parece y no se da cuenta que es desubicada de orto ojala se recurse vida por forra,1
tambien hay que estar enfermita para buscar que dicen de ti a todas horas,0
muy enfermita chabona esta no,1
enfermita sos vos que sos de boca,1
estas enfermita por eso,1
ahora hija de esta gorda trola va a ir y te va a romper gorra por gila no t regales enfermita,1
enfermita,1
fua re enfermita,1
con tus tuits se nota q sos enfermita con bacterias amore,1
gastroenterologo y dentista son dos doctores que mas ansiedad me dan prefiero estar enfermita en mi cama q en esta sala de espera,0
de huida de aida merlano todos sabemos que instutucion inpec es muy corrupta desde su creacion con constitucion de nacio enfermita de ese mal,0
saludos a usted que me pito perdone careculo que llevaba pero toy enfermita saludos,0
sabemos que inoec es uno de institucionse mas corruptas desde su creacion con constitucion de nacio enfermita de corrupcion y de huida de aida merlano no es raro,0
cuando enfermita esta despejada dicen grandes verdades pero le dura poco que pena de chica,1
cuanta amargura demuestra enfermita esa que bien la estupida es infeliz y asi morira infeliz no conocera jamas felicidad ni amor,1
enfermita todo mal,1
si ven por favor den aviso a autoridadesaida merlano se hace llamar esta buena pero se le nota enfermita,0
y se presento enfermita juzgado todos con operacin santrich,0
me paso santo dia tarareando esta cancion dias ano estoy enfermita o algo porque no es normal obsesion,0
creo seguire enfermita dias mas,0
esta enfermita pobre sola sin dinero pobrecita hasta su televisor rifo para pagar abogados inhumanos y priistas donde estan,0
se ve que estaba muy enfermita,0
no se asustan con esa sensacion cuando toman muchas pastillas y les falta aire cada que tienen minimo de actividad fisica enfermita odiotomarpastillas,0
pero callate enfermita,1
no lees que digo o sos medio enfermita,1
increible ver cantidad de gente diciendo que es excelente que ejercito se tome universidad porque hay que darle plomo a terroristaswhat de verdad hay gente muy enfermita en este pais,0
como puden seguir a tal enfermita,1
hotwife acostadita enfermita seductora quien me cura,0
hacete tratar enfermita,1
pues hasta hoy me anime a armar mi josejosepalooza ya se que me tarde cuantos dias pero estaba enfermita,0
cuanto falta para que atropellen a enfermita esta,1
esta enfermita de tanto golpes,1
buenas tardes mis amores disculpen abandono estoy enfermita igual les mando besos,0
que bien que habla esta enfermita,1
hace frio pero me prendo aire igual enfermita siempre,0
enfermita de cabeza,1
uh y ahora que te pasa enfermita de mierda te pegan en tu casa,1
oe viejita corrupta me entere que te has puesto enfermita dicen que en carcel tienen muy buen programa de salud ya pronto te mandamos para alla no te preocupes congresodisuelto,0
ahora se hace enfermita que pena,1
re enfermita como hace,1
hace tres dias estoy tratando de hacer analisis comunicacional y no me sale tan enfermita tenias que ser,0
solamente con ver en tu descripcion que eres de murcia he podido deducir tu nivel de iq siento haberme metido con persona que esta enfermita no volvere a hacer bro,1
enfermita jajajaja i get chu,0
diganme q no soy lq unica enfermita q no puede tomar muchas veces mismo sorbete sea d reutilizables como d cano nose no puedo porq siento q no se lavan bien y sigue quedando gusto d q tomaste anteriormente y dsp d veces ya m da asco y arcadas tomar d ahi,0
si seguro te babeas con menta granizada vos enfermita,0
que decia enfermita,1
estas enfermita tienes senos adoloridos perra malparida,1
cerra orto vos enfermita,1
que enfermita esta piba,1
enfermita y sin nadie que me consienta no es justo,0
alta enfermita man,1
estaba que le decia que se tome algo enfermita esa,1
wtf con gente enfermita,0
sos enfermita,1
jajajaja enfermita me bloqueo por bomba,1
unica enfermita es cony santa maria que no sabe donde queda nueva zelanda no se prepara para entrevistas y presidente pinera dejo como ignorante en ultima entrevista que le hizo,0
como hacia yo voy a estar con dos libros alado viendo compu como enfermita,0
y ya salto primera conchuda segui participando que no ganaste por conchuda,1
marisol olvidaste caso de eres monton sin dignidad moral valores donde te criaste profesional sin eticayo en tu lugar me voy callada conchuda,1
estoy a nada de que me largo a llorar extrano tanto a esta conchuda trabajos orto,0
que conchuda orto mi vecina gritando bomba en culo le voy a poner,1
conchuda,1
lloro de felicidad como conchuda con ese wsp,0
mis amigas mas conchuda q otra no organizo nunca mas nada bai,0
y argentina belen esteves q hace ahi ya no se acuerda de sus amorios y escandalos se cree santa y conchuda se indigna con pobre chico valgamedios,0
igual que me bardeas conchuda,1
unico que me tiene manija verano es tatuarme con conchuda de wanda,0
sos conchuda,1
hija de puta hija de grab puta conchuda desagradecida maldita escoria como t atreves,1
de acupuntura siempre me pide que me relaje y me duerma si puedo pero como pretendes que me duerma si me estas poniendo agujas en pies manos pecho y cabeza contame vos quien se relaja en esa situacion conchuda,0
no hay gente mas cojuda y conchuda en pais que que cuestiona a sonnenholzner porque nadie eligioes vicepresidente de acuerdo proceso constitucional constitucion que debia durar anos constitucion que era gran producto de revolucion ciudadana,0
hoy dije a mi no me mientas que no nac ayer y vos tenes cmara en mi casa y me ves cara de pelotuda todo en misma llamada porque conchuda,0
si no fuera mi hermana arrancaria a pinaspero te juro que cuando me mude nunca mas va a saber de mi o de mis hijos conchuda de mierdahace anos me despreciase siente mejor que todos y solamente es ella en su mundo me tiene bolas llenas,0
jajajaja ay como gente es conchuda,0
si se durmio y todo conchuda,0
anda conchuda,1
yo tambien te fui a ver como veces conchuda,1
que mina conchuda loco,1
nunca falta conchuda que sube con hijo tren o colectivo re contra lleno mami espera otro si te queres sentar,0
encima que ya me siento mal tenia que venir conchuda a cagarme dia,0
hace como mes no me junto con braian me dice conchuda paso en media y bueno si antes de morir en este encierro,0
pm tincho veni conchuda no me vas a dejar tirado entrabamos a a pasantias no espero ni minuto martin intenso guila,0
que les pasa a minitas que quieren darte lecciones de vida u opiniones de mierda sobre como te tenes que manejar con hijo cuando ellas ni siquiera son mamas no sabes que es no hables primero vivilo conchuda,0
yo mas conchuda nunca mas me ensenaste,0
a nada de mandar a conchuda que dice pasito fondo a mierda a nada,1
che conchuda respondeme wwp,1
sos conchuda lauri,1
tendria que dejar de comer harinas parezco de meses que conchuda jajaja,0
conchuda te odio,1
jajajajajajaja puta que conchuda peluche csm jajajajajaja bien esta eres no si primera que filma todo cuando se va de viaje eres tu ta que olla hablandole a sarten,0
vieja conchuda,1
jajskajs hice todo tan mal hoy que hasta me termine cayendo bondi q conchuda,0
a ver veni conchuda,1
aunque isma era bastante conchuda,0
a ver conchuda aceptame que con mi amiga te queremos stalkear,0
a vos conchuda orto,1
hay no q vieja tan conchuda,1
pone pava conchuda,0
vieja conchuda en todos lados,0
bien que queres que haga joda conchuda,1
a sos graciosa conchuda orto,1
amo porque mama nunca me putea directamente sino que me tira frases como quien habra sido conchuda que abrio mayonesa asi quien habra sido boluda que dejo puerta abierta jsjaja decime cosas en cara puta,0
ctm conchuda nada bueno hiciste anda estudia cojuda y busca trabajo deja de joder peru,0
fati conchuda te espere para teres si llegas a leer esto voy a estar durmiendo y odiandote en mis suenos calienta,0
que lindo conchuda de magali tajes siendo transfobica de mierda cuando no,1
conchuda me piso zapatillas que ganas de matarla,1
parece que hoy no voy a poder dormir siesta conchuda de mierda,1
bueno estoy encerrada en mi habitacion porque es cumple de conchuda arre si y festeja aca y estan haciendo asado no solo que me chupa huevo sino que si gente piola me ve deambulando me van a ofrecer sentarme a comer y tampoco tengo plata ni ganas de comer,0
era nena y madre con cel ni me miro conchuda que gente pedorra,0
conchuda hdp,1
te extrano conchuda,0
tendrias que tener verguenza de hablar conchuda,1
conchuda si hablamos de celos vos ganas,1
si esperas fecha para latam sos verdadera clown yo sigo hace casi anos y conchuda nunca vino ni siquiera vorterix,0
causas en ano conchuda,1
con c de conchuda como podes escribir asi dijo dani alvez,0
cuenta regresiva bronceado caribeno conchuda blanca que soy,0
por conchuda,1
por wpp no me respondes y aca si conchuda,1
dios conchuda de mi vieja que no me responde telefono,0
martincito si ves esto decile a tu amiguita nadi que deje de romperme pelotas no conozco y no quiero que vea mis cosas pendeja conchuda,0
mira color de conchuda esta gracias chica que no conozco prox habla mas despacio,0
es terrible plan que dice esta conchuda,1
octubre con o de oh como me caes gorda por conchuda,1
esta conchuda y tanta gente hablando de falopa como si fuera solo mal kirchnerismo cuando mismisimo mauri es falopero de toda vida merluzon ritondo es flor de drogadicto a todo esto por que no preguntan por bomparola dealer de farandula giles,0
porque no se pone a trabajar en otra cosa para que pueda pagar su seguridad que tal concha que quiera que estado le pague con nuestra plata semejante golleria conchuda,0
dice que si para que no le pregunten mas conchuda ni ganas de explicar tiene,0
tu hablando de incapacidadque conchuda que eres jajajajajaja,0
te arribo que quiero conchuda,1
esta mujer se paso de conchuda,1
parcial mas facil vengo a desaprobar seguramente que si falto estudio si que podria haberme sacado diez si que si tu vieja es media conchuda a veces si tambien porque no ahre,0
aver si tira algo ahora conchuda,1
conchuda buscate trabajo y deja de fastidiar,1
que conchuda esta profe che,0
jajajaja lpm como viven pendientes porque no se lima cuernos esta conchuda,0
callate conchuda,1
que hermosa que es esta conchuda,0
esta conchuda me esta tirando todo humo arriba que chupa verga,0
y si dejas de ser tan conchuda,1
le tengo q contar algo a mini y conchuda no tiene celular,0
como hago para desaparecer a gente conchuda mundo,0
pero conchuda te mande wpp,1
yo no me junto con gente conchuda byes,0
dio pero que mina conchuda,1
como vas a mover culo asi conchuda,1
culo roto tendras vos conchuda de mierda,1
sos un poquito conchuda,1
conchuda de antonella en dos dias gasto lucas dale pelotuda que recien es despues tenes que pedir prestado,0
que conchuda,1
q mal humor m hizo agarrar conchuda esta no se q le pinto,1
a vos pedazo de conchuda,1
es conchuda querible,0
banco a mis vecinos que estan con musica re palo escuchando temitas de rock nacional pero a conchuda hija de yuta de mi otra vecina odio con toda mi alma por hacerme bardo por poner musica fuerte,0
que conchuda porque no estudias algo a ver ai enpiezas por culturizarte y asi buscat trabajo que te haga digna,1
callate conchuda,1
que es conchuda nariz facil,1
entre mi suegra y hermana no se quien es mas conchuda,1
conchuda hoy te iba a contar y no te vi en ningun lado veni colegio ratahoy voy a tu casa jsjsjs,0
con mi hijo tuvimos serios problemas para dormir durante varios meses ahora que encaminamos y es bebe dormilon soy yo que despierto a porque corta con vagancia pibe que despues te acostas muy tarde alta conchuda soy,0
en pena habia flaco que me bailoteaba y se me tiraba o que le hice cara asquerosa y cuando me di vuelta atenti me dijo conchuda jajajajjaajjajajajaja,0
me caga que mi hermana mayor sea tan conchuda,1
yo nomas voy a cargar sube sin sube si sere conchuda,1
conchuda d mierda no puedo comer nada,1
encima conchuda de mi mama me vino a despeertar y estaba sonando algo re bello chupame huevos maria me vuellvo a dormirnmejor,0
ayer le dije a mi hermana que ya no me daban ganas de venir a mdes que prefiero quedarme en pueblo nomas y muy conchuda me dice que ya me estoy volviendo vieja jajajajaja que,0
que es mentirosa sin pudor es conchuda mentirosa,1
culeas todos dias conchuda,1
y muy forra me habla como si nos llevaramos bien altas ganas de patear gran sonrisa falsa de vieja conchuda,1
sos conchuda metete conciencia social en centro ojete forra,1
ya esta de malhumor conchuda de mi hermana y me dan ganas de meterle patada en cabeza,1
me bloqueo vieja conchuda,1
mi gata es mas arisca que puede haber siempre que se le acerca a perra muerde o le hace algo dia que ella se acerca a ser buena conchuda de perra muerde claro ejemplo de porque no hay que ser buena,0
gente es muy conchuda vea,0
bueno ya estoy re caliente me van a cortar luz porque conchuda que estaba antes no pago ute tarada yo que alquile sin preguntar alguien que me de alojamiento para banarme porfis,0
a vieja conchuda que esta fumando en fila cajero si no tira cigarrillo voy a cazar de pelos,0
aca sufriendo xq mi chico se va de viaje de egre kajsjsha perdon pero no puedo,0
veces se me escapo conchuda de prin,1
se paso de conchuda,1
despues pide favores conchuda esta,1
para mi falto que le diga conchuda y nv jaja,0
gente nace conchuda,0
ud tras de mentirosa es conchuda,1
a malena massa operaron porque le exploto conchuda,1
esta si que es bien conchuda,1
entienden que no tengo nada para fiestaa que conchuda,0
que conchuda eres ustedes tuvieron todo para legislar a favor pueblo y que hicieron joder su tiempo se termino es hora de gente joven con principios morales solidos,0
ah que conchuda ahora es contra mi tambien,0
que conchuda puede ser persona dios mio,1
sabiamos que se iba a pasar de conchuda es como gordo corto de aliento que no para de bajarse cajas de marlborosepan disculparme hoy estoy frontalizado,0
este cafe esta frio y negro como tu alma conchuda,1
nos cambian parcial porque no habia corregido parcial pasado y ahora resulta que tampoco corrigio que conchuda,0
estaba durmiendo tan rico y entra conchuda de mi hermana gritando maxi no tenes que ir hospital yo sabia que tenia que ir mas tarde pero hasta me hizo dudar de hora dia de existencia de todo y me saco sueno,0
pero hay cada conchuda,1
dias de semana son muy pesados te extrano mas conchuda,0
mi vieja haciendome quilombo pq no piso nunca su casa y re q me vive rajando jajsjs conchuda casi full time,0
a trabajar sra no sea conchuda,1
hoy en bondi habia nenita parada y le di asiento y habia mina lado mio y me levante y le dije es para nena y se sento igual muy conchuda y como todos miraron mal se termino dando jajaja,0
no he visto nunca a persona tan conchuda como esta de que se cubre,1
para que ponen turno d manana si son y todavia no me atiende esta conchuda hija de re mil puta odio esperar,0
no boluda pero se cree mil conchuda y mira a todos como si fueran menos y basurea a todo mundo no se quien se cree prima d cazzu jua,0
ahora se nos volvio victima no me joda conchuda,1
ah ahora no soy libre de tener riqueza donde se me canta forro orto q te tengo q pagar pedazo de conchuda hija de puta,0
flaca sos hermosa no bardies a futura abuela de mi nietos wuauawusuuw igual sos hermosa conchuda,0
que conchuda esta cree que todos somos idiotas,1
como vas a decirle borlas a bolas de fraile conchuda,0
es conchuda nos vamos a vengar proximamente,1
que conchuda carajo,1
que conchuda nosotros necesitamos efectivos policiales en calles para nuestra seguridad si quiere resguardo que de su plata contrate,0
jajajajajaa conchuda menos mal q desactive wifi sino puras notificaciones,0
esta conchuda no suelta mas maquina,0
odio hacerme tatuaje y ke me digan xq te hiciste esoy no se amiga xq a tu bendicion cria abuela conchuda,0
anda conchuda de mierda po,1
y conchuda de mi companero dice q no son gays le pego o le pego fue,0
que tal conchuda es esta mujer como no pudo robar en congreso juntos con sus ratas fujimoristas ahora se le ocurre decir que quiere ser presidente seores de este lugar ustedes aceptarian a esta corrupta como su presidente pues yo no,0
jajajaj conchuda,0
vos sos conchuda jajajaja te amo,0
ysi si nos haces llorar a todxs conchuda tkm,0
jajajajajajajjaa conchuda le dice me hiciste dia,0
dano d primera lleva tilde conchuda m decepcionas,0
horas dormi jajajaja q conchuda,0
bueno me voy a hacer tarea de geografia q tengo q cerrar con nueve y vieja conchuda esta me va a bajar puntos de concepto,0
hola senora conchuda verdad que viejito cobarde es su amo todavia,0
bue estoy re emocionada xq hoy voy a ver guasonn,0
hablar mal de que supuestamente llamas amiga te hace falsa hipocrita y conchuda,0
le mande a brisa que ya estaba llegando todo re asustada por que conchuda no me contesta y me falta como hora todavia jajajajjajajajajaj,0
no se que le pasa a conchuda esta que manda todas clases tp de dia para otro flaaca no tenes otra cosa q hacer,0
esta tipa tiene pizarra de adorno no escribe nada ni titulos conchuda,0
esta facil para que atienda conchuda esta,0
escribime conchuda,1
creo que companero mio tiene problema mental mismo que me dijo que todas mujeres son putas hoy me dijo conchuda de mierda de nada ja hacete tratar,0
ja ja ja muelona es bien conchuda para hablar de ampay esta ahi de favor y de relleno tenia razon alejandra baigorria cuando dijo a quien se estara tirando en latina para que hayan puesto de conductora,0
por conchuda y sucia que asco,1
ey yo se que a veces soy conchuda y tengo actitudes de mierda hago esfuerzo por cambiar eso,0
minas que creen que deben recibir respeto solo por ser mujeres ke si sos persona maleducada y conchuda me chupa pija sea quien seas si me respetas va a estar siempre mejor,1
le estaba contando a amiga que tengo nauseas sueno y dolor de cabeza y me duelen tetasy me dice no estaras embarazada ah no cierto que no pones desde hace anoque hdpayelen no es necesario que me recuerdes conchuda,0
esta esta loca o es conchuda,1
chorizo este debeestar acordandose de toda familia de conchuda esta x a ver quedado escrachado x tele,0
encima conchuda de hace,1
mas conchuda es,1
que envidia entonces debe garchar todos dias de cinco a seis gran conchuda,0
que podes esperar de esta conchuda de mierda no sabe otra que hacer que romper pelotas lpqtp que mina hdp,1
me desperte a para acompanar rengo de jony a sala para sacar turno con traumatologo y chabon esta de vacaciones peor es q jony le pregunto a compa amiga renga y muy conchuda mando sin saber q no habia traumatologo pd odio a rengos,0
tan berreta ibas a ser conchuda,1
que mina mas pelotuda se hace comprensiva con delincuente y otra vez que atacaron a femenina policial donde estaba esta conchuda,0
hace ano atras conchuda me robo todos mis aritos hasta de flor que era re lindo bue se acordaba jssjsjsjjs,0
pudiendo dormir temprano me quedo hasta tarde viendo videos sabiendo que tengo que madrugar y voy a estar cansada todo dia es q tambien soy conchuda,0
tengo meses para hacer que mi amiga se enamore de vago que me cae bien lindo bueno que se baaimportante porque a conchuda si no es drogadicto y sucio no le gusta,0
vos conmigo conchuda,1
bloqueada por conchuda y sorete,1
pedo le hice mirar peli de terror a conchuda de mi amiga tuve q acompanar hasta su casa xq estaba re cagada,0
me lei todo hilo y que hp cringe jajajajaja cuando hay bastardez de plata verdad que hay gente muy conchuda jajajajaja eso es guarapo y sale,0
vo conchuda mira que hace rato que no te maltrato he,1
gente conchuda cuando quiera pague consultica amigo vea pues le salio a deber,0
es mas fea que pisar mierda caliente descalzo fijate si podes tratar asi a diputada pero quien poronga te pensas q trato como se me cantan pelotas progreinutil conchuda me chupa huevos que sea estigmatizante que revisen veces si es necesario,0
tengo q usar play music xq soy conchuda y me olvide d pagar tarjeta asi q me quede sin spotify pero like x mi perra pidiendome comida con esa cara d boluda,0
trabaja conchuda mal nacida,1
que conchuda que es gente xd,0
te quiero no me queres zorra te quiero mucho estupida vos me queres conchuda te aloviu a ti aunque no te diga,1
tiene a su vecina que no hace ni semana que salio de estar internada mal y tiene musica asi de fuerte conchuda esta,1
y despues gran conchuda termina con rodilla rota,1
ay laura tan conchuda vas a ser,1
que conchuda de mierda que sos te odio,1
sofia me queres contestar conchuda,1
esa nena me hizo reir tanto hoy es cinica masoquista y conchuda se da garra,1
conchuda tira gente q sos,1
bueno menos mal q estaba bien hoy no ariana jazmin colman q conchuda q sos,1
me canse d pedirtelas conchuda,1
estupida idiota conchuda,1
re puta madre que te pario pelotuda orto cuando vas a aprender conchuda,1
te pasaste de conchuda mamita,1
te odio conchuda,1
le di mejor de mi a conchuda que no merecia mas que leche en boca y nos vemo en disney,1
culo te vas a tener q hacer cerrar cuando te deje cajeta como girasol conchuda,1
que conchuda es magaly medina si urraca no respeta a nadie y encima pide respeto simplemente plop,1
dale conchuda,1
se puede ser tan conchuda,1
yo siempre dije a mi teneme como amigo antes que enemigo ni sabe que le viene a conchuda esa,1
no estabas grave conchuda te agarro ataque de cheicon tenes lengua muy larga como mazita callate poco ridicula que no vas a llegar a nada,1
justo para vos no era tweet y ya de paso ojala se te rompa por conchuda,1
raro q no menstrues por boca con cara de conchuda q tenes,1
ya te exrano conchuda,1
conchuda de mierda te odio,1
yo me voy a morir con esta conchuda,1
claro antes de hablar de demas mirate a vos conchuda,1
y con vos que hay que hacer pedazo de conchuda,1
no m rompas bolas conchuda,1
que es chorra conchuda guerrillera e hija de puta,1